{
    "*.devops.vatten": "192.168.105.22",
    "*.pages.devops.vatten": "192.168.105.22",
    "devops.vatten": "192.168.105.22",
    "apps-245.docker.vatten": "192.168.105.245",
    "*.apps-245.docker.vatten": "192.168.105.245",
    "apps-246.docker.vatten": "192.168.105.246",
    "apps-247.docker.vatten": "192.168.105.247",
    "storage-249.docker.vatten": "192.168.105.249",
    "*.storage-249.docker.vatten": "192.168.105.249",
    "storage-250.docker.vatten": "192.168.105.250",
    "storage-251.docker.vatten": "192.168.105.251"
}
